[gd_scene load_steps=6 format=2]

[ext_resource path="res://Scripts/coin_red.gd" type="Script" id=1]
[ext_resource path="res://Assets/images/tileset/button/red coin.png" type="Texture" id=2]
[ext_resource path="res://Assets/fonts/nazara.tres" type="DynamicFont" id=3]

[sub_resource type="CircleShape2D" id=1]
radius = 49.457

[sub_resource type="Animation" id=2]
resource_name = "red_coin_anim"
loop = true
tracks/0/type = "value"
tracks/0/path = NodePath("Sprite:position")
tracks/0/interp = 1
tracks/0/loop_wrap = true
tracks/0/imported = false
tracks/0/enabled = true
tracks/0/keys = {
"times": PoolRealArray( 0, 0.5 ),
"transitions": PoolRealArray( 1, 1 ),
"update": 0,
"values": [ Vector2( 0, 0 ), Vector2( 0, -30 ) ]
}
tracks/1/type = "value"
tracks/1/path = NodePath("Sprite:rotation_degrees")
tracks/1/interp = 1
tracks/1/loop_wrap = true
tracks/1/imported = false
tracks/1/enabled = true
tracks/1/keys = {
"times": PoolRealArray( 0, 0.5 ),
"transitions": PoolRealArray( 1, 1 ),
"update": 0,
"values": [ 0.0, 0.0 ]
}

[node name="coin_red" type="Node2D"]
script = ExtResource( 1 )

[node name="Sprite" type="Sprite" parent="."]
position = Vector2( 0, -19.2282 )
scale = Vector2( 0.08, 0.08 )
texture = ExtResource( 2 )

[node name="Area2D" type="Area2D" parent="."]

[node name="CollisionShape2D" type="CollisionShape2D" parent="Area2D"]
position = Vector2( 1.08073, -20.4546 )
rotation = -3.13224
shape = SubResource( 1 )

[node name="AnimationPlayer" type="AnimationPlayer" parent="."]
autoplay = "red_coin_anim"
anims/red_coin_anim = SubResource( 2 )

[node name="Label" type="Label" parent="."]
margin_left = -22.2422
margin_top = -102.534
margin_right = 16.7578
margin_bottom = -67.5337
custom_fonts/font = ExtResource( 3 )
custom_colors/font_color = Color( 0.576471, 0, 0, 1 )
text = "+ 5"
[connection signal="body_entered" from="Area2D" to="." method="_on_coinred_body_entered"]
